2013-09-22;005;Hohmann;87
2013-09-22;006;Schepke;319
2013-09-22;010;Heimann;447
2013-09-22;012;Ahlgrim;102
2013-09-22;012;Falk;124
2013-09-22;014;Wiechmann;2509
2013-09-22;015;Adomeit;1390
2013-09-22;018;Füsers;661
2013-09-22;018;Jasinski;154
2013-09-22;019;Fiedler;505
2013-09-22;020;Scheffler;1469
2013-09-22;023;Reher;331
2013-09-22;025;Lükensmeier;587
2013-09-22;033;Gums;616
2013-09-22;051;Hönig;569
2013-09-22;052;Baumelt;269
2013-09-22;056;Rieger;1625
2013-09-22;056;Krebs;1531
2013-09-22;056;Kayser;336
2013-09-22;058;Peschel;895
2013-09-22;059;Büttner;701
2013-09-22;059;Focken;493
2013-09-22;060;Rödiger;620
2013-09-22;061;Hörstel;719
2013-09-22;061;Hercher;1243
2013-09-22;064;Neskovic;9999
2013-09-22;065;Jonik;540
2013-09-22;067;Buch;696
2013-09-22;072;Bauersfeld;1325
2013-09-22;073;Jaschkowski;442
2013-09-22;074;Pap;881
2013-09-22;075;Boes;1053
2013-09-22;075;Sylla;347
2013-09-22;077;Ditsche;694
2013-09-22;080;Fricke;204
2013-09-22;083;Di Leo;674
2013-09-22;083;Beckmann;486
2013-09-22;085;Otto;499
2013-09-22;086;Snelinski;1219
2013-09-22;090;Babatankuz;196
2013-09-22;099;Staratschek;354
2013-09-22;100;Voss;446
2013-09-22;120;Gramm;570
2013-09-22;122;Surmann;1006
2013-09-22;129;Seemann;324
2013-09-22;133;Rein;441
2013-09-22;135;Teschke;664
2013-09-22;135;Gutsch;565
2013-09-22;136;Köhler;703
2013-09-22;137;Tegethof;468
2013-09-22;142;Meyer;188
2013-09-22;156;Merz;2024
2013-09-22;156;Nitzsche;2986
2013-09-22;159;Klawun;265
2013-09-22;167;Bracht;545
2013-09-22;168;Stolte;845
2013-09-22;172;Rentzos;541
2013-09-22;173;Klis;724
2013-09-22;183;Paris;4682
2013-09-22;196;Meißner;1053
2013-09-22;202;Jansen;895
2013-09-22;221;Mertel;232
2013-09-22;223;Bauer;226
2013-09-22;233;Mühlbauer;393
2013-09-22;235;Human;204
2013-09-22;235;Dippel;5181
2013-09-22;244;Pfleiderer;193
2013-09-22;247;Normann;466
2013-09-22;257;Fischer;660
2013-09-22;258;Gäbel;84
2013-09-22;258;Schweizer;1472
2013-09-22;258;Ressdorf;76
2013-09-22;259;Eckstein;951
2013-09-22;273;Degler;760
2013-09-22;281;Kissel;1800
2013-09-22;281;Verweyen;48
2013-09-22;286;Kauder;3579
2013-09-22;289;Matheis;964
2013-09-22;291;Beier;1348
2013-09-22;294;Kanis;323
