2009-09-27;002;Albertsen;433
2009-09-27;003;Peter;715
2009-09-27;004;Thiesen;948
2009-09-27;005;Wildenradt von;814
2009-09-27;006;Schepke F;924
2009-09-27;007;Hoffmann;529
2009-09-27;008;Strub;783
2009-09-27;008;Schepke M;442
2009-09-27;009;Janssen;433
2009-09-27;012;Kind;618
2009-09-27;014;Rusin;565
2009-09-27;014;Radloff;479
2009-09-27;015;Adomeit;1322
2009-09-27;015;Wilke;479
2009-09-27;016;Wiest;1478
2009-09-27;016;Raemdonck van;657
2009-09-27;017;Lüder;647
2009-09-27;018;Waldow;1138
2009-09-27;018;Münz;505
2009-09-27;020;Saß;954
2009-09-27;021;Scheffler;1295
2009-09-27;030;Didlap;847
2009-09-27;031;Nagel;431
2009-09-27;040;Stöckel;658
2009-09-27;041;Coscia;567
2009-09-27;043;Weiland;417
2009-09-27;046;Neumann;388
2009-09-27;048;Böttcher;502
2009-09-27;051;Thomas;800
2009-09-27;051;Dauter;294
2009-09-27;054;Kurnaz;361
2009-09-27;055;Hövener;709
2009-09-27;055;Könnecke;348
2009-09-27;056;Tangeten;423
2009-09-27;058;Münz;781
2009-09-27;059;Frank;1008
2009-09-27;060;Weßlau;2280
2009-09-27;060;Sommerau;566
2009-09-27;061;Sommer;862
2009-09-27;061;Rettig;776
2009-09-27;065;Rätzel;1045
2009-09-27;066;Brückner;587
2009-09-27;067;Siegmund;3672
2009-09-27;067;Bresch;257
2009-09-27;067;Dettmer;274
2009-09-27;068;Lehmann;733
2009-09-27;070;Godau;851
2009-09-27;071;Fitzek;878
2009-09-27;072;Gahler;1132
2009-09-27;074;Jaschkowski;912
2009-09-27;076;Boes;2301
2009-09-27;076;Kamburoglu;693
2009-09-27;077;Bernsen;1396
2009-09-27;077;Brandt;584
2009-09-27;078;Ditsche;1267
2009-09-27;078;Hempel;529
2009-09-27;079;Kaute;752
2009-09-27;080;Christiansen;830
2009-09-27;080;Munzel;1437
2009-09-27;081;Dettweiler;331
2009-09-27;081;Polei;261
2009-09-27;082;Pfeifer;854
2009-09-27;083;Köhn;1305
2009-09-27;083;Yorulmaz;316
2009-09-27;083;Buchmann;388
2009-09-27;083;Bayrak;1924
2009-09-27;084;Feldhaus;1555
2009-09-27;084;Nägle;217
2009-09-27;084;Stiewe;918
2009-09-27;084;Naumann;232
2009-09-27;085;Wende;625
2009-09-27;086;Beck;766
2009-09-27;087;Snelinski;1439
2009-09-27;092;Martin;458
2009-09-27;093;Schmitz;464
2009-09-27;094;Dieckmann M;318
2009-09-27;098;Trenkenschuh;319
2009-09-27;100;Grabowski;449
2009-09-27;101;Weber;409
2009-09-27;102;Dieckmann J;529
2009-09-27;110;Dennhoven;243
2009-09-27;116;Wojnarowicz;405
2009-09-27;122;Schincke;264
2009-09-27;130;Seemann;235
2009-09-27;132;Dörken;455
2009-09-27;140;Höwing;285
2009-09-27;144;Balke;922
2009-09-27;155;Teske;1090
2009-09-27;156;Klingner;1103
2009-09-27;160;Häupl;612
2009-09-27;160;Richter;801
2009-09-27;161;Welke;1436
2009-09-27;165;Peuschel;1580
2009-09-27;166;Kramer;520
2009-09-27;168;Lenz;311
2009-09-27;169;Petersen;715
2009-09-27;174;Klis;1253
2009-09-27;177;Hachenburger;328
2009-09-27;179;Schrader;444
2009-09-27;184;Aita;482
2009-09-27;185;Kansiz;229
2009-09-27;187;Schumacher;822
2009-09-27;187;Merkel;459
2009-09-27;189;Macamo;309
2009-09-27;190;Lohfing-Blanke;1075
2009-09-27;190;Grube;317
2009-09-27;191;Rothe;595
2009-09-27;192;Möller;672
2009-09-27;192;Beyer;1176
2009-09-27;193;Fimmel;947
2009-09-27;193;Schumann;673
2009-09-27;196;Krauß;934
2009-09-27;202;Jansen;801
2009-09-27;209;Kunz;1283
2009-09-27;212;Dietert;1197
2009-09-27;212;Berger;728
2009-09-27;214;Porray;327
2009-09-27;216;Acker;793
2009-09-27;217;Franzke;466
2009-09-27;218;Utz;1285
2009-09-27;219;Karcher;839
2009-09-27;220;Frank;617
2009-09-27;220;Steinmeyer;1167
2009-09-27;221;Mertel;248
2009-09-27;221;Blechschmidt;979
2009-09-27;221;Landauer;652
2009-09-27;226;Siade;598
2009-09-27;226;Herz;725
2009-09-27;231;Kanneder;602
2009-09-27;234;Kiehl;556
2009-09-27;234;Späth;950
2009-09-27;235;Dippel;17196
2009-09-27;236;Lamprecht;303
2009-09-27;238;Häßler;342
2009-09-27;239;Wunderlich;650
2009-09-27;241;Dorst;692
2009-09-27;242;Schramm;281
2009-09-27;248;Schätzlein;712
2009-09-27;250;Rückert;526
2009-09-27;251;Holl;742
2009-09-27;252;Mangold-Nietzschmann;846
2009-09-27;254;Lemmermeier;297
2009-09-27;257;Stephan;263
2009-09-27;257;Fischer;1125
2009-09-27;266;Mackert;1095
2009-09-27;266;Winkler;346
2009-09-27;268;Lange;1004
2009-09-27;269;Riebesam;311
2009-09-27;270;Nass;1567
2009-09-27;271;Ringger;101
2009-09-27;271;Leyendecker;215
2009-09-27;272;Zundel;506
2009-09-27;275;Ulusoy;311
2009-09-27;284;Hense;594
2009-09-27;284;Sälinger;264
2009-09-27;284;Eckert;172
2009-09-27;288;Greb;349
2009-09-27;289;Matheis;436
2009-09-27;289;Gagliardi;351
2009-09-27;290;Schade;1075
2009-09-27;291;Beier;2329
2009-09-27;291;Schönbeck;229
2009-09-27;292;Baer;414
2009-09-27;294;Scheinert;1048
2009-09-27;295;Löffler;2431
